<?xml version="1.0" encoding="utf-8"?>
<!-- Generator: Adobe Illustrator 15.0.0, SVG Export Plug-In . SVG Version: 6.00 Build 0)  -->
<!DOCTYPE svg PUBLIC "-//W3C//DTD SVG 1.1//EN" "http://www.w3.org/Graphics/SVG/1.1/DTD/svg11.dtd">
<svg version="1.1" id="Capa_1" xmlns="http://www.w3.org/2000/svg" xmlns:xlink="http://www.w3.org/1999/xlink" x="0px" y="0px"
	 width="60px" height="60px" viewBox="226 226 60 60" enable-background="new 226 226 60 60" xml:space="preserve">
<g>
	<g>
		<path fill="#5DCEDF" d="M256,226c-16.542,0-30,13.458-30,30s13.458,30,30,30s30-13.458,30-30S272.542,226,256,226z M256,284
			c-15.439,0-28-12.561-28-28c0-15.439,12.561-28,28-28c15.439,0,28,12.561,28,28C284,271.439,271.44,284,256,284z"/>
		<path fill="#5DCEDF" d="M257,252.021v-10.142c0-0.553-0.448-1-1-1c-0.552,0-1,0.447-1,1v10.142
			c-1.399,0.364-2.494,1.459-2.858,2.858H245c-0.552,0-1,0.447-1,1c0,0.553,0.448,1,1,1h7.142c0.447,1.72,2,3,3.858,3
			c2.206,0,4-1.794,4-4C260,254.02,258.72,252.468,257,252.021z M256,257.879c-1.103,0-2-0.896-2-2c0-1.103,0.897-2,2-2
			c1.103,0,2,0.897,2,2C258,256.982,257.103,257.879,256,257.879z"/>
		<path fill="#5DCEDF" d="M256,235.879c0.552,0,1-0.447,1-1v-1c0-0.553-0.448-1-1-1c-0.552,0-1,0.447-1,1v1
			C255,235.432,255.448,235.879,256,235.879z"/>
		<path fill="#5DCEDF" d="M256,275.879c-0.552,0-1,0.447-1,1v1c0,0.553,0.448,1,1,1c0.552,0,1-0.447,1-1v-1
			C257,276.326,256.552,275.879,256,275.879z"/>
		<path fill="#5DCEDF" d="M278,254.879h-1c-0.552,0-1,0.447-1,1c0,0.553,0.448,1,1,1h1c0.552,0,1-0.447,1-1
			C279,255.326,278.552,254.879,278,254.879z"/>
		<path fill="#5DCEDF" d="M235,254.879h-1c-0.552,0-1,0.447-1,1c0,0.553,0.448,1,1,1h1c0.552,0,1-0.447,1-1
			C236,255.326,235.552,254.879,235,254.879z"/>
		<path fill="#5DCEDF" d="M270.849,239.615l-0.707,0.707c-0.391,0.391-0.391,1.023,0,1.414c0.195,0.195,0.451,0.293,0.707,0.293
			s0.513-0.098,0.707-0.293l0.707-0.707c0.392-0.391,0.392-1.023,0-1.414C271.872,239.224,271.24,239.225,270.849,239.615z"/>
		<path fill="#5DCEDF" d="M240.444,270.021l-0.707,0.706c-0.391,0.392-0.391,1.023,0,1.414c0.195,0.195,0.451,0.294,0.707,0.294
			s0.512-0.099,0.707-0.294l0.707-0.707c0.391-0.391,0.391-1.022,0-1.413C241.467,269.63,240.834,269.631,240.444,270.021z"/>
		<path fill="#5DCEDF" d="M271.556,270.021c-0.391-0.392-1.022-0.392-1.414,0c-0.391,0.391-0.391,1.022,0,1.413l0.707,0.707
			c0.195,0.195,0.451,0.294,0.707,0.294s0.513-0.099,0.707-0.294c0.392-0.391,0.392-1.022,0-1.414L271.556,270.021z"/>
		<path fill="#5DCEDF" d="M241.151,239.615c-0.391-0.391-1.023-0.391-1.414,0c-0.391,0.391-0.391,1.023,0,1.414l0.707,0.707
			c0.195,0.195,0.451,0.293,0.707,0.293s0.512-0.098,0.707-0.293c0.391-0.391,0.391-1.023,0-1.414L241.151,239.615z"/>
	</g>
</g>
</svg>
