<?xml version="1.0" encoding="utf-8"?>
<!-- Generator: Adobe Illustrator 15.0.0, SVG Export Plug-In . SVG Version: 6.00 Build 0)  -->
<!DOCTYPE svg PUBLIC "-//W3C//DTD SVG 1.1//EN" "http://www.w3.org/Graphics/SVG/1.1/DTD/svg11.dtd">
<svg version="1.1" id="Capa_1" xmlns="http://www.w3.org/2000/svg" xmlns:xlink="http://www.w3.org/1999/xlink" x="0px" y="0px"
	 width="22px" height="22px" viewBox="244.994 245 22 22" enable-background="new 244.994 245 22 22" xml:space="preserve">
<g>
	<g>
		<path fill="#FFFEFE" d="M262.676,267c-0.916,0-2.021-0.229-3.237-0.688c-2.665-1.005-5.565-2.99-8.165-5.591
			c-2.601-2.602-4.587-5.502-5.593-8.167c-0.914-2.423-0.917-4.413-0.005-5.323c0.131-0.13,0.264-0.271,0.402-0.416
			c0.831-0.874,1.77-1.857,3.015-1.813c0.857,0.036,1.688,0.569,2.54,1.627c2.515,3.127,1.381,4.242,0.069,5.533l-0.231,0.23
			c-0.215,0.214-0.62,1.208,3.152,4.98c1.231,1.232,2.281,2.134,3.12,2.679c0.528,0.343,1.474,0.863,1.861,0.476l0.232-0.235
			c1.291-1.31,2.406-2.439,5.531,0.073c1.058,0.851,1.591,1.681,1.625,2.539c0.052,1.245-0.938,2.186-1.813,3.017
			c-0.145,0.138-0.285,0.271-0.416,0.4C264.31,266.773,263.586,267,262.676,267z M249.003,245.74c-0.884,0-1.683,0.84-2.389,1.584
			c-0.143,0.149-0.28,0.294-0.416,0.43c-0.678,0.678-0.609,2.459,0.175,4.539c0.969,2.569,2.896,5.377,5.424,7.905
			c2.528,2.527,5.333,4.454,7.904,5.423c2.079,0.785,3.861,0.852,4.538,0.175c0.136-0.136,0.28-0.272,0.431-0.414
			c0.76-0.723,1.622-1.541,1.583-2.448c-0.025-0.624-0.479-1.296-1.35-1.995c-2.604-2.094-3.332-1.355-4.54-0.13l-0.237,0.238
			c-0.577,0.578-1.515,0.45-2.787-0.377c-0.883-0.574-1.974-1.508-3.24-2.775c-3.131-3.13-4.132-5.046-3.152-6.028l0.236-0.233
			c1.227-1.208,1.968-1.937-0.127-4.542c-0.701-0.87-1.371-1.324-1.995-1.35C249.042,245.74,249.023,245.74,249.003,245.74z"/>
	</g>
</g>
</svg>
